................
----------------------------------------------------------------------
Ran 16 tests in 0.675s

OK
Name             Stmts   Miss Branch BrPart  Cover   Missing
------------------------------------------------------------
Collatz.py          51      0     26      0   100%
TestCollatz.py      67      0      0      0   100%
------------------------------------------------------------
TOTAL              118      0     26      0   100%
